EESchema Schematic File Version 2
LIBS:power
LIBS:device
LIBS:switches
LIBS:relays
LIBS:motors
LIBS:transistors
LIBS:conn
LIBS:linear
LIBS:regul
LIBS:74xx
LIBS:cmos4000
LIBS:adc-dac
LIBS:memory
LIBS:xilinx
LIBS:microcontrollers
LIBS:dsp
LIBS:microchip
LIBS:analog_switches
LIBS:motorola
LIBS:texas
LIBS:intel
LIBS:audio
LIBS:interface
LIBS:digital-audio
LIBS:philips
LIBS:display
LIBS:cypress
LIBS:siliconi
LIBS:opto
LIBS:atmel
LIBS:contrib
LIBS:valves
LIBS:+1v2
LIBS:+1v8
LIBS:+3v
LIBS:+3v3
LIBS:+5v
LIBS:+12v
LIBS:+15v
LIBS:+vs
LIBS:2-spst
LIBS:-15v
LIBS:74avc4t245
LIBS:74vc1t45
LIBS:74vc2t45
LIBS:aat1217
LIBS:aat3681a
LIBS:acs711ex
LIBS:ad8429
LIBS:ant
LIBS:bat
LIBS:buck-sot23-5
LIBS:buck-sot23-6
LIBS:button-dpdt
LIBS:c
LIBS:cm1624
LIBS:com
LIBS:conn-1
LIBS:conn-2
LIBS:conn-2x4
LIBS:conn-2x5
LIBS:conn-3
LIBS:conn-4
LIBS:conn-5
LIBS:conn-6
LIBS:conn-7
LIBS:conn-8
LIBS:cp
LIBS:d
LIBS:de-9
LIBS:debugheader
LIBS:drdc3105
LIBS:drv883x
LIBS:drv8838
LIBS:drv8839
LIBS:dtc-npn
LIBS:erc12864-1
LIBS:esp-12
LIBS:ferrite
LIBS:fuse
LIBS:gnd
LIBS:ICE40HX4K-144
LIBS:ina199
LIBS:in-amp
LIBS:ip425xcz12
LIBS:isp130301
LIBS:jtag
LIBS:jumper
LIBS:k22f-64lqfp
LIBS:l
LIBS:lcd5110
LIBS:ldo-sot-23-5
LIBS:led
LIBS:lis2-lga12
LIBS:lm78xx-so8
LIBS:lm3671
LIBS:lm27313
LIBS:ln1410
LIBS:lpc812
LIBS:lpc824
LIBS:lpddrx16
LIBS:lt6102
LIBS:lt6106
LIBS:ltc3251
LIBS:ltc3260
LIBS:mag3110
LIBS:max4737eud
LIBS:max6070
LIBS:max9938
LIBS:mchck
LIBS:mcp47x6-sot-23-6
LIBS:mcp3221
LIBS:mic5205
LIBS:mic5365
LIBS:mic9409x
LIBS:mic23031
LIBS:microsd
LIBS:mkl03zxxvfg4
LIBS:mkl03zxxvfk4
LIBS:MKL26ZxxVFM4
LIBS:mkl27zxxvfm4
LIBS:mounthole
LIBS:mounting-hole
LIBS:mpl3115a2
LIBS:mpu6050
LIBS:mpu-6050
LIBS:mun53
LIBS:nmos
LIBS:nmos-pmos-sot23-6
LIBS:nmos-pmos-sot-666
LIBS:npn
LIBS:nup4114
LIBS:op-amp
LIBS:phone-3
LIBS:pmos
LIBS:pnp
LIBS:pot
LIBS:power_flag
LIBS:powersyms
LIBS:pwr
LIBS:r
LIBS:r4
LIBS:relay
LIBS:rs485trx-fullduplex
LIBS:SAM3U-144
LIBS:schottky
LIBS:si8410
LIBS:sip32401a
LIBS:sit1602
LIBS:slide-spdt
LIBS:solder-jumper-nc
LIBS:spiflash
LIBS:tactile-4
LIBS:test
LIBS:testpoint
LIBS:thermistor
LIBS:tlv713
LIBS:tp4055
LIBS:tp4056
LIBS:tpd4s012
LIBS:tps6040x
LIBS:tps27081a
LIBS:ts3usb31
LIBS:usb
LIBS:usb334x
LIBS:USB3300
LIBS:usb-c
LIBS:vana
LIBS:varef
LIBS:vbu
LIBS:vcore
LIBS:vin
LIBS:vio
LIBS:vout
LIBS:vpll
LIBS:-vs
LIBS:vtarget
LIBS:vusb
LIBS:vutmi
LIBS:xtal
LIBS:zener
LIBS:TPS Design-cache
EELAYER 25 0
EELAYER END
$Descr A4 11693 8268
encoding utf-8
Sheet 1 1
Title ""
Date ""
Rev ""
Comp ""
Comment1 ""
Comment2 ""
Comment3 ""
Comment4 ""
$EndDescr
$Comp
L R R1
U 1 1 59CEF24D
P 2950 1000
F 0 "R1" V 3030 1000 50  0000 C CNN
F 1 "10k" V 2950 1000 50  0000 C CNN
F 2 "Resistors_ThroughHole:R_Axial_DIN0309_L9.0mm_D3.2mm_P15.24mm_Horizontal" V 2880 1000 50  0001 C CNN
F 3 "" H 2950 1000 50  0001 C CNN
	1    2950 1000
	1    0    0    -1  
$EndComp
$Comp
L R R2
U 1 1 59CEFB0E
P 3130 1000
F 0 "R2" V 3210 1000 50  0000 C CNN
F 1 "10k" V 3130 1000 50  0000 C CNN
F 2 "" V 3060 1000 50  0001 C CNN
F 3 "" H 3130 1000 50  0001 C CNN
	1    3130 1000
	1    0    0    -1  
$EndComp
$Comp
L +5V #PWR01
U 1 1 59CEFEAE
P 3050 760
F 0 "#PWR01" H 3050 610 50  0001 C CNN
F 1 "+5V" H 3050 900 50  0000 C CNN
F 2 "" H 3050 760 50  0001 C CNN
F 3 "" H 3050 760 50  0001 C CNN
	1    3050 760 
	1    0    0    -1  
$EndComp
Text Label 2950 1370 1    60   ~ 0
SDA
Text Label 3130 1370 1    60   ~ 0
SCL
$Comp
L CP1 C2
U 1 1 59CF0486
P 2060 1040
F 0 "C2" H 2085 1140 50  0000 L CNN
F 1 "22u" H 2085 940 50  0000 L CNN
F 2 "" H 2060 1040 50  0001 C CNN
F 3 "" H 2060 1040 50  0001 C CNN
	1    2060 1040
	1    0    0    -1  
$EndComp
$Comp
L +5V #PWR02
U 1 1 59CF07FC
P 2060 770
F 0 "#PWR02" H 2060 620 50  0001 C CNN
F 1 "+5V" H 2060 910 50  0000 C CNN
F 2 "" H 2060 770 50  0001 C CNN
F 3 "" H 2060 770 50  0001 C CNN
	1    2060 770 
	1    0    0    -1  
$EndComp
$Comp
L GND #PWR03
U 1 1 59CF090C
P 2060 1280
F 0 "#PWR03" H 2060 1030 50  0001 C CNN
F 1 "GND" H 2060 1130 50  0000 C CNN
F 2 "" H 2060 1280 50  0001 C CNN
F 3 "" H 2060 1280 50  0001 C CNN
	1    2060 1280
	1    0    0    -1  
$EndComp
Text Label 1760 870  0    60   ~ 0
AVCC
$Comp
L CP1 C1
U 1 1 59CF14CB
P 1610 1040
F 0 "C1" H 1635 1140 50  0000 L CNN
F 1 "22u" H 1635 940 50  0000 L CNN
F 2 "" H 1610 1040 50  0001 C CNN
F 3 "" H 1610 1040 50  0001 C CNN
	1    1610 1040
	1    0    0    -1  
$EndComp
$Comp
L +5V #PWR04
U 1 1 59CF14D1
P 1610 770
F 0 "#PWR04" H 1610 620 50  0001 C CNN
F 1 "+5V" H 1610 910 50  0000 C CNN
F 2 "" H 1610 770 50  0001 C CNN
F 3 "" H 1610 770 50  0001 C CNN
	1    1610 770 
	1    0    0    -1  
$EndComp
$Comp
L GND #PWR05
U 1 1 59CF14D8
P 1610 1280
F 0 "#PWR05" H 1610 1030 50  0001 C CNN
F 1 "GND" H 1610 1130 50  0000 C CNN
F 2 "" H 1610 1280 50  0001 C CNN
F 3 "" H 1610 1280 50  0001 C CNN
	1    1610 1280
	1    0    0    -1  
$EndComp
Text Label 1310 870  0    60   ~ 0
VCC
Text Label 3960 1890 0    60   ~ 0
AREF
$Comp
L CP1 C3
U 1 1 59CF2445
P 2550 1040
F 0 "C3" H 2575 1140 50  0000 L CNN
F 1 "22u" H 2575 940 50  0000 L CNN
F 2 "" H 2550 1040 50  0001 C CNN
F 3 "" H 2550 1040 50  0001 C CNN
	1    2550 1040
	1    0    0    -1  
$EndComp
$Comp
L GND #PWR06
U 1 1 59CF2453
P 2550 1280
F 0 "#PWR06" H 2550 1030 50  0001 C CNN
F 1 "GND" H 2550 1130 50  0000 C CNN
F 2 "" H 2550 1280 50  0001 C CNN
F 3 "" H 2550 1280 50  0001 C CNN
	1    2550 1280
	1    0    0    -1  
$EndComp
Text Label 2250 870  0    60   ~ 0
AREF
Text Label 6300 2540 2    60   ~ 0
SDA
$Comp
L AVR-ISP-6 CON1
U 1 1 59CF29EE
P 1830 2090
F 0 "CON1" H 1725 2330 50  0000 C CNN
F 1 "AVR-ISP-6" H 1565 1860 50  0000 L BNN
F 2 "AVR-ISP-6" V 1310 2130 50  0001 C CNN
F 3 "" H 1805 2090 50  0001 C CNN
	1    1830 2090
	1    0    0    -1  
$EndComp
Text Label 2160 2020 0    60   ~ 0
VCC
Text Label 2230 2130 0    60   ~ 0
MOSI
Text Label 2190 2240 0    60   ~ 0
GND
Text Label 1300 1240 0    60   ~ 0
GND
Text Label 1410 2030 2    60   ~ 0
MISO
Text Label 1410 2130 2    60   ~ 0
SCK
Text Label 1450 2230 2    60   ~ 0
RST
Text Label 6300 2640 2    60   ~ 0
SCL
Text Label 6300 2740 2    60   ~ 0
RST
Text Label 6310 1590 2    60   ~ 0
MOSI
Text Label 6310 1690 2    60   ~ 0
MISO
Text Label 6270 1790 2    60   ~ 0
SCK
$Comp
L ATMEGA328P-PU U1
U 1 1 59CEF1EA
P 5100 2390
F 0 "U1" H 4350 3640 50  0000 L BNN
F 1 "ATMEGA328P-PU" H 5500 990 50  0000 L BNN
F 2 "Housings_DIP:DIP-28_W7.62mm_Socket" H 5100 2390 50  0001 C CIN
F 3 "" H 5100 2390 50  0001 C CNN
	1    5100 2390
	1    0    0    -1  
$EndComp
Text Label 4020 3590 0    60   ~ 0
GND
$Comp
L IRLZ44N Q1
U 1 1 59D02D99
P 9670 1460
F 0 "Q1" H 9920 1535 50  0000 L CNN
F 1 "IRLZ44N" H 9920 1460 50  0000 L CNN
F 2 "TO_SOT_Packages_THT:TO-220_Vertical" H 9920 1385 50  0001 L CIN
F 3 "" H 9670 1460 50  0001 L CNN
	1    9670 1460
	1    0    0    -1  
$EndComp
$Comp
L R R6
U 1 1 59D02FCA
P 9770 1010
F 0 "R6" V 9850 1010 50  0000 C CNN
F 1 "10k" V 9770 1010 50  0000 C CNN
F 2 "" V 9700 1010 50  0001 C CNN
F 3 "" H 9770 1010 50  0001 C CNN
	1    9770 1010
	1    0    0    -1  
$EndComp
$Comp
L R R3
U 1 1 59D031A3
P 9150 1460
F 0 "R3" V 9230 1460 50  0000 C CNN
F 1 "10k" V 9150 1460 50  0000 C CNN
F 2 "" V 9080 1460 50  0001 C CNN
F 3 "" H 9150 1460 50  0001 C CNN
	1    9150 1460
	0    1    1    0   
$EndComp
$Comp
L +5V #PWR07
U 1 1 59D033C5
P 9770 770
F 0 "#PWR07" H 9770 620 50  0001 C CNN
F 1 "+5V" H 9770 910 50  0000 C CNN
F 2 "" H 9770 770 50  0001 C CNN
F 3 "" H 9770 770 50  0001 C CNN
	1    9770 770 
	1    0    0    -1  
$EndComp
$Comp
L GND #PWR08
U 1 1 59D0389C
P 9770 1750
F 0 "#PWR08" H 9770 1500 50  0001 C CNN
F 1 "GND" H 9770 1600 50  0000 C CNN
F 2 "" H 9770 1750 50  0001 C CNN
F 3 "" H 9770 1750 50  0001 C CNN
	1    9770 1750
	1    0    0    -1  
$EndComp
Text Label 10460 1210 2    60   ~ 0
PWM_FILTER_IN
Text Label 6820 3090 2    60   ~ 0
MPU_INTERRUPT
Text Label 6560 2890 2    60   ~ 0
SERIAL_RX
Text Label 6550 2990 2    60   ~ 0
SERIAL_TX
$Comp
L Conn_01x03_Male J2
U 1 1 59D05F4F
P 1630 2800
F 0 "J2" H 1630 3000 50  0000 C CNN
F 1 "Conn_01x03_Male" H 1630 2600 50  0000 C CNN
F 2 "" H 1630 2800 50  0001 C CNN
F 3 "" H 1630 2800 50  0001 C CNN
	1    1630 2800
	1    0    0    -1  
$EndComp
Text Label 2280 2700 2    60   ~ 0
SERIAL_TX
Text Label 2290 2800 2    60   ~ 0
SERIAL_RX
Text Label 2010 2900 2    60   ~ 0
GND
$Comp
L Conn_01x08_Male J1
U 1 1 59D07F82
P 1580 3700
F 0 "J1" H 1580 4100 50  0000 C CNN
F 1 "Conn_01x08_Male" H 1580 3200 50  0000 C CNN
F 2 "" H 1580 3700 50  0001 C CNN
F 3 "" H 1580 3700 50  0001 C CNN
	1    1580 3700
	1    0    0    -1  
$EndComp
Text Label 1950 3400 2    60   ~ 0
VCC
Text Label 1960 3500 2    60   ~ 0
GND
Text Label 1950 3600 2    60   ~ 0
SCL
Text Label 1950 3700 2    60   ~ 0
SDA
Text Label 2500 4100 2    60   ~ 0
MPU_INTERRUPT
Text Label 1960 4000 2    60   ~ 0
GND
Text Notes 2290 3240 2    60   ~ 12
MPU_6050 PINOUT
Text Notes 2250 2550 2    60   ~ 12
SERIAL INTERFACE
Text Notes 2380 1760 2    60   ~ 12
PROGRAMMING INTERFACE
Text Label 7020 2140 2    60   ~ 0
PWM_FILTER_OUT
$Comp
L R R4
U 1 1 59D0E8C6
P 9250 2770
F 0 "R4" V 9330 2770 50  0000 C CNN
F 1 "1k" V 9250 2770 50  0000 C CNN
F 2 "" V 9180 2770 50  0001 C CNN
F 3 "" H 9250 2770 50  0001 C CNN
	1    9250 2770
	0    1    1    0   
$EndComp
$Comp
L R R5
U 1 1 59D0EC91
P 9700 2770
F 0 "R5" V 9780 2770 50  0000 C CNN
F 1 "1k" V 9700 2770 50  0000 C CNN
F 2 "" V 9630 2770 50  0001 C CNN
F 3 "" H 9700 2770 50  0001 C CNN
	1    9700 2770
	0    1    1    0   
$EndComp
$Comp
L CP1 C4
U 1 1 59D0F1B0
P 9450 3020
F 0 "C4" H 9475 3120 50  0000 L CNN
F 1 "0.3u" H 9475 2920 50  0000 L CNN
F 2 "" H 9450 3020 50  0001 C CNN
F 3 "" H 9450 3020 50  0001 C CNN
	1    9450 3020
	1    0    0    -1  
$EndComp
$Comp
L CP1 C5
U 1 1 59D0F346
P 9930 3020
F 0 "C5" H 9955 3120 50  0000 L CNN
F 1 "0.3u" H 9955 2920 50  0000 L CNN
F 2 "" H 9930 3020 50  0001 C CNN
F 3 "" H 9930 3020 50  0001 C CNN
	1    9930 3020
	1    0    0    -1  
$EndComp
Wire Wire Line
	2950 850  3130 850 
Wire Wire Line
	3050 770  3050 850 
Connection ~ 3050 850 
Wire Wire Line
	2950 1150 2950 1370
Wire Wire Line
	3130 1370 3130 1150
Wire Wire Line
	2060 770  2060 890 
Wire Wire Line
	1760 870  2060 870 
Connection ~ 2060 870 
Wire Wire Line
	1610 770  1610 890 
Wire Wire Line
	1610 1190 1610 1280
Wire Wire Line
	1090 870  1610 870 
Connection ~ 1610 870 
Wire Wire Line
	4200 1890 3960 1890
Wire Wire Line
	2550 870  2550 890 
Wire Wire Line
	2550 1280 2550 1190
Wire Wire Line
	2250 870  2550 870 
Wire Wire Line
	6100 2540 6300 2540
Wire Wire Line
	6100 2640 6300 2640
Connection ~ -660 1020
Wire Wire Line
	1930 1990 2040 1990
Wire Wire Line
	2040 1990 2040 2020
Wire Wire Line
	2040 2020 2180 2020
Wire Wire Line
	1930 2090 2040 2090
Wire Wire Line
	2040 2090 2040 2130
Wire Wire Line
	2040 2130 2230 2130
Wire Wire Line
	1930 2190 2040 2190
Wire Wire Line
	2040 2190 2040 2240
Wire Wire Line
	2040 2240 2190 2240
Connection ~ 1610 1240
Wire Wire Line
	1090 1240 1610 1240
Wire Wire Line
	1680 1990 1590 1990
Wire Wire Line
	1590 1990 1590 2030
Wire Wire Line
	1590 2030 1410 2030
Wire Wire Line
	1680 2090 1590 2090
Wire Wire Line
	1590 2090 1590 2130
Wire Wire Line
	1590 2130 1410 2130
Wire Wire Line
	1680 2190 1590 2190
Wire Wire Line
	1590 2190 1590 2230
Wire Wire Line
	1590 2230 1450 2230
Wire Wire Line
	6100 1590 6310 1590
Wire Wire Line
	6100 1690 6310 1690
Wire Wire Line
	6100 1790 6270 1790
Wire Wire Line
	6100 2740 6300 2740
Wire Wire Line
	4200 3590 4020 3590
Wire Wire Line
	9770 1160 9770 1260
Wire Wire Line
	9300 1460 9470 1460
Wire Wire Line
	9770 770  9770 860 
Wire Wire Line
	9770 1750 9770 1660
Wire Wire Line
	9770 1210 10460 1210
Connection ~ 9770 1210
Wire Wire Line
	6100 3090 6820 3090
Wire Wire Line
	6100 2990 6550 2990
Wire Wire Line
	6100 2890 6560 2890
Wire Wire Line
	1830 2700 2280 2700
Wire Wire Line
	1830 2800 2290 2800
Wire Wire Line
	1830 2900 2010 2900
Wire Wire Line
	1780 3400 1950 3400
Wire Wire Line
	1780 3500 1960 3500
Wire Wire Line
	1780 3600 1950 3600
Wire Wire Line
	1780 3700 1950 3700
Wire Wire Line
	1780 4100 2500 4100
Wire Wire Line
	1780 4000 1960 4000
Wire Wire Line
	6100 2140 7020 2140
Wire Wire Line
	9400 2770 9550 2770
Wire Wire Line
	9450 2870 9450 2770
Connection ~ 9450 2770
Wire Wire Line
	9850 2770 10710 2770
Wire Wire Line
	9930 2770 9930 2870
$Comp
L GND #PWR09
U 1 1 59D0F722
P 9450 3230
F 0 "#PWR09" H 9450 2980 50  0001 C CNN
F 1 "GND" H 9450 3080 50  0000 C CNN
F 2 "" H 9450 3230 50  0001 C CNN
F 3 "" H 9450 3230 50  0001 C CNN
	1    9450 3230
	1    0    0    -1  
$EndComp
$Comp
L GND #PWR010
U 1 1 59D0F7FD
P 9930 3220
F 0 "#PWR010" H 9930 2970 50  0001 C CNN
F 1 "GND" H 9930 3070 50  0000 C CNN
F 2 "" H 9930 3220 50  0001 C CNN
F 3 "" H 9930 3220 50  0001 C CNN
	1    9930 3220
	1    0    0    -1  
$EndComp
Wire Wire Line
	9930 3220 9930 3170
Wire Wire Line
	9100 2770 8430 2770
Text Label 8430 2770 0    60   ~ 0
PWM_FILTER_IN
Connection ~ 9930 2770
Text Label 10710 2770 2    60   ~ 0
PWM_FILTER_OUT
Wire Wire Line
	1780 3900 1950 3900
Wire Wire Line
	1780 3800 1950 3800
Text Label 1950 3800 2    60   ~ 0
GND
Text Label 1950 3900 2    60   ~ 0
GND
Wire Wire Line
	9450 3230 9450 3170
Wire Wire Line
	2060 1280 2060 1190
Wire Wire Line
	4200 3490 4020 3490
Text Label 4020 3490 0    60   ~ 0
GND
Wire Wire Line
	4200 1290 4000 1290
Text Label 4000 1290 0    60   ~ 0
VCC
Wire Wire Line
	4200 1590 3980 1590
Text Label 3980 1590 0    60   ~ 0
AVCC
$Comp
L PWR_FLAG #FLG011
U 1 1 59D2D83E
P 1090 780
F 0 "#FLG011" H 1090 855 50  0001 C CNN
F 1 "PWR_FLAG" H 1090 930 50  0000 C CNN
F 2 "" H 1090 780 50  0001 C CNN
F 3 "" H 1090 780 50  0001 C CNN
	1    1090 780 
	1    0    0    -1  
$EndComp
Wire Wire Line
	1090 780  1090 870 
$Comp
L PWR_FLAG #FLG012
U 1 1 59D2DF65
P 1090 1150
F 0 "#FLG012" H 1090 1225 50  0001 C CNN
F 1 "PWR_FLAG" H 1090 1300 50  0000 C CNN
F 2 "" H 1090 1150 50  0001 C CNN
F 3 "" H 1090 1150 50  0001 C CNN
	1    1090 1150
	1    0    0    -1  
$EndComp
Wire Wire Line
	1090 1150 1090 1240
Wire Wire Line
	6100 1390 6520 1390
Text Label 6520 1390 2    60   ~ 0
PWM_OUT
Wire Wire Line
	9000 1460 8590 1460
Text Label 8590 1460 0    60   ~ 0
PWM_OUT
NoConn ~ 6100 2440
NoConn ~ 6100 2340
NoConn ~ 6100 2240
NoConn ~ 6100 1990
NoConn ~ 6100 1890
NoConn ~ 6100 3590
NoConn ~ 6100 3490
NoConn ~ 6100 3390
NoConn ~ 6100 3190
NoConn ~ 6100 1290
NoConn ~ 6100 1490
NoConn ~ 6100 3290
$EndSCHEMATC
