(export (version D)
  (design
    (source "C:/Users/lesth/Desktop/Projects/Throttle Position Sensor/TPS Sources/TPS/PCB Design/TPS Design.sch")
    (date "10/10/2017 9:37:57 AM")
    (tool "Eeschema 4.0.7")
    (sheet (number 1) (name /) (tstamps /)
      (title_block
        (title)
        (company)
        (rev)
        (date)
        (source "TPS Design.sch")
        (comment (number 1) (value ""))
        (comment (number 2) (value ""))
        (comment (number 3) (value ""))
        (comment (number 4) (value "")))))
  (components
    (comp (ref R1)
      (value 10k)
      (footprint Resistors_ThroughHole:R_Axial_DIN0309_L9.0mm_D3.2mm_P15.24mm_Horizontal)
      (libsource (lib device) (part R))
      (sheetpath (names /) (tstamps /))
      (tstamp 59CEF24D))
    (comp (ref R2)
      (value 10k)
      (libsource (lib device) (part R))
      (sheetpath (names /) (tstamps /))
      (tstamp 59CEFB0E))
    (comp (ref C2)
      (value 22u)
      (libsource (lib device) (part CP1))
      (sheetpath (names /) (tstamps /))
      (tstamp 59CF0486))
    (comp (ref C1)
      (value 22u)
      (libsource (lib device) (part CP1))
      (sheetpath (names /) (tstamps /))
      (tstamp 59CF14CB))
    (comp (ref C3)
      (value 22u)
      (libsource (lib device) (part CP1))
      (sheetpath (names /) (tstamps /))
      (tstamp 59CF2445))
    (comp (ref CON1)
      (value AVR-ISP-6)
      (footprint AVR-ISP-6)
      (libsource (lib atmel) (part AVR-ISP-6))
      (sheetpath (names /) (tstamps /))
      (tstamp 59CF29EE))
    (comp (ref U1)
      (value ATMEGA328P-PU)
      (footprint Housings_DIP:DIP-28_W7.62mm_Socket)
      (libsource (lib atmel) (part ATMEGA328P-PU))
      (sheetpath (names /) (tstamps /))
      (tstamp 59CEF1EA))
    (comp (ref Q1)
      (value IRLZ44N)
      (footprint TO_SOT_Packages_THT:TO-220_Vertical)
      (libsource (lib transistors) (part IRLZ44N))
      (sheetpath (names /) (tstamps /))
      (tstamp 59D02D99))
    (comp (ref R6)
      (value 10k)
      (libsource (lib device) (part R))
      (sheetpath (names /) (tstamps /))
      (tstamp 59D02FCA))
    (comp (ref R3)
      (value 10k)
      (libsource (lib device) (part R))
      (sheetpath (names /) (tstamps /))
      (tstamp 59D031A3))
    (comp (ref J2)
      (value Conn_01x03_Male)
      (libsource (lib conn) (part Conn_01x03_Male))
      (sheetpath (names /) (tstamps /))
      (tstamp 59D05F4F))
    (comp (ref J1)
      (value Conn_01x08_Male)
      (libsource (lib conn) (part Conn_01x08_Male))
      (sheetpath (names /) (tstamps /))
      (tstamp 59D07F82))
    (comp (ref R4)
      (value 1k)
      (libsource (lib device) (part R))
      (sheetpath (names /) (tstamps /))
      (tstamp 59D0E8C6))
    (comp (ref R5)
      (value 1k)
      (libsource (lib device) (part R))
      (sheetpath (names /) (tstamps /))
      (tstamp 59D0EC91))
    (comp (ref C4)
      (value 0.3u)
      (libsource (lib device) (part CP1))
      (sheetpath (names /) (tstamps /))
      (tstamp 59D0F1B0))
    (comp (ref C5)
      (value 0.3u)
      (libsource (lib device) (part CP1))
      (sheetpath (names /) (tstamps /))
      (tstamp 59D0F346)))
  (libparts
    (libpart (lib atmel) (part ATMEGA168A-PU)
      (aliases
        (alias ATMEGA48A-PU)
        (alias ATMEGA48PA-PU)
        (alias ATMEGA88A-PU)
        (alias ATMEGA88PA-PU)
        (alias ATMEGA168PA-PU)
        (alias ATMEGA328-PU)
        (alias ATMEGA328P-PU))
      (description "PDIP28 Narrow, 16k Flash, 1kB SRAM, 512B EEPROM")
      (docs http://www.atmel.com/images/atmel-8271-8-bit-avr-microcontroller-atmega48a-48pa-88a-88pa-168a-168pa-328-328p_datasheet.pdf)
      (footprints
        (fp 28DIP-ELL600)
        (fp 28dip600))
      (fields
        (field (name Reference) U)
        (field (name Value) ATMEGA168A-PU)
        (field (name Footprint) DIL28))
      (pins
        (pin (num 1) (name "(PCINT14/~RESET~)PC6") (type BiDi))
        (pin (num 2) (name "(PCINT16/RXD)PD0") (type BiDi))
        (pin (num 3) (name "(PCINT17/TXD)PD1") (type BiDi))
        (pin (num 4) (name "(PCINT18/INT0)PD2") (type BiDi))
        (pin (num 5) (name "(PCINT19/OC2B/INT1)PD3") (type BiDi))
        (pin (num 6) (name "(PCINT20/XCK/T0)PD4") (type BiDi))
        (pin (num 7) (name VCC) (type power_in))
        (pin (num 8) (name GND) (type power_in))
        (pin (num 9) (name "(PCINT6/XTAL1/TOSC1)PB6") (type BiDi))
        (pin (num 10) (name "(PCINT7/XTAL2/TOSC2)PB7") (type BiDi))
        (pin (num 11) (name "(PCINT21/OC0B/T1)PD5") (type BiDi))
        (pin (num 12) (name "(PCINT22/OC0A/AIN0)PD6") (type BiDi))
        (pin (num 13) (name "(PCINT23/AIN1)PD7") (type BiDi))
        (pin (num 14) (name "(PCINT0/CLKO/ICP1)PB0") (type BiDi))
        (pin (num 15) (name "(PCINT1/OC1A)PB1") (type BiDi))
        (pin (num 16) (name "(PCINT2/OC1B/~SS~)PB2") (type BiDi))
        (pin (num 17) (name "(PCINT3/OC2A/MOSI)PB3") (type BiDi))
        (pin (num 18) (name "(PCINT4/MISO)PB4") (type BiDi))
        (pin (num 19) (name "(PCINT5/SCK)PB5") (type BiDi))
        (pin (num 20) (name AVCC) (type power_in))
        (pin (num 21) (name AREF) (type BiDi))
        (pin (num 22) (name GND) (type power_in))
        (pin (num 23) (name "(PCINT8/ADC0)PC0") (type BiDi))
        (pin (num 24) (name "(PCINT9/ADC1)PC1") (type BiDi))
        (pin (num 25) (name "(PCINT10/ADC2)PC2") (type BiDi))
        (pin (num 26) (name "(PCINT11/ADC3)PC3") (type BiDi))
        (pin (num 27) (name "(PCINT12/SDA/ADC4)PC4") (type BiDi))
        (pin (num 28) (name "(PCINT13/SCL/ADC5)PC5") (type BiDi))))
    (libpart (lib atmel) (part AVR-ISP-6)
      (description "Standard IDC6 Male Connector, ATMEL ISP 6pin")
      (fields
        (field (name Reference) CON)
        (field (name Value) AVR-ISP-6)
        (field (name Footprint) AVR-ISP-6))
      (pins
        (pin (num 1) (name ~) (type passive))
        (pin (num 2) (name ~) (type passive))
        (pin (num 3) (name ~) (type passive))
        (pin (num 4) (name ~) (type passive))
        (pin (num 5) (name ~) (type passive))
        (pin (num 6) (name ~) (type passive))))
    (libpart (lib transistors) (part BUZ11)
      (aliases
        (alias IRLZ44N)
        (alias IRLIZ44N)
        (alias IRLZ34N)
        (alias IRF3205)
        (alias IRF540N))
      (description "50V Vds, 30A Id, N-Channel Power MOSFET, TO-220")
      (docs http://www.fairchildsemi.com/ds/BU/BUZ11.pdf)
      (footprints
        (fp TO?220*))
      (fields
        (field (name Reference) Q)
        (field (name Value) BUZ11)
        (field (name Footprint) TO_SOT_Packages_THT:TO-220_Vertical))
      (pins
        (pin (num 1) (name G) (type input))
        (pin (num 2) (name D) (type passive))
        (pin (num 3) (name S) (type passive))))
    (libpart (lib device) (part CP1)
      (description "Polarised capacitor")
      (footprints
        (fp CP_*))
      (fields
        (field (name Reference) C)
        (field (name Value) CP1))
      (pins
        (pin (num 1) (name ~) (type passive))
        (pin (num 2) (name ~) (type passive))))
    (libpart (lib conn) (part Conn_01x03_Male)
      (description "Generic connector, single row, 01x03")
      (docs ~)
      (footprints
        (fp Connector*:*_??x*mm*)
        (fp Connector*:*1x??x*mm*)
        (fp Pin?Header?Straight?1X*)
        (fp Pin?Header?Angled?1X*))
      (fields
        (field (name Reference) J)
        (field (name Value) Conn_01x03_Male))
      (pins
        (pin (num 1) (name Pin_1) (type passive))
        (pin (num 2) (name Pin_2) (type passive))
        (pin (num 3) (name Pin_3) (type passive))))
    (libpart (lib conn) (part Conn_01x08_Male)
      (description "Generic connector, single row, 01x08")
      (docs ~)
      (footprints
        (fp Connector*:*_??x*mm*)
        (fp Connector*:*1x??x*mm*)
        (fp Pin?Header?Straight?1X*)
        (fp Pin?Header?Angled?1X*))
      (fields
        (field (name Reference) J)
        (field (name Value) Conn_01x08_Male))
      (pins
        (pin (num 1) (name Pin_1) (type passive))
        (pin (num 2) (name Pin_2) (type passive))
        (pin (num 3) (name Pin_3) (type passive))
        (pin (num 4) (name Pin_4) (type passive))
        (pin (num 5) (name Pin_5) (type passive))
        (pin (num 6) (name Pin_6) (type passive))
        (pin (num 7) (name Pin_7) (type passive))
        (pin (num 8) (name Pin_8) (type passive))))
    (libpart (lib device) (part R)
      (description Resistor)
      (footprints
        (fp R_*)
        (fp R_*))
      (fields
        (field (name Reference) R)
        (field (name Value) R))
      (pins
        (pin (num 1) (name ~) (type passive))
        (pin (num 2) (name ~) (type passive)))))
  (libraries
    (library (logical atmel)
      (uri "C:\\Program Files\\KiCad\\share\\kicad\\library\\atmel.lib"))
    (library (logical device)
      (uri "C:\\Program Files\\KiCad\\share\\kicad\\library\\device.lib"))
    (library (logical conn)
      (uri "C:\\Program Files\\KiCad\\share\\kicad\\library\\conn.lib"))
    (library (logical transistors)
      (uri "C:\\Program Files\\KiCad\\share\\kicad\\library\\transistors.lib")))
  (nets
    (net (code 1) (name /MOSI)
      (node (ref CON1) (pin 4))
      (node (ref U1) (pin 17)))
    (net (code 2) (name /MISO)
      (node (ref CON1) (pin 1))
      (node (ref U1) (pin 18)))
    (net (code 3) (name /SCK)
      (node (ref U1) (pin 19))
      (node (ref CON1) (pin 3)))
    (net (code 4) (name /RST)
      (node (ref U1) (pin 1))
      (node (ref CON1) (pin 5)))
    (net (code 5) (name "Net-(Q1-Pad1)")
      (node (ref Q1) (pin 1))
      (node (ref R3) (pin 1)))
    (net (code 6) (name /MPU_INTERRUPT)
      (node (ref J1) (pin 8))
      (node (ref U1) (pin 4)))
    (net (code 7) (name /SERIAL_TX)
      (node (ref U1) (pin 3))
      (node (ref J2) (pin 1)))
    (net (code 8) (name "Net-(C4-Pad1)")
      (node (ref R4) (pin 1))
      (node (ref R5) (pin 2))
      (node (ref C4) (pin 1)))
    (net (code 9) (name /PWM_FILTER_OUT)
      (node (ref R5) (pin 1))
      (node (ref C5) (pin 1))
      (node (ref U1) (pin 23)))
    (net (code 10) (name "Net-(R1-Pad1)")
      (node (ref R2) (pin 1))
      (node (ref R1) (pin 1)))
    (net (code 11) (name /SERIAL_RX)
      (node (ref J2) (pin 2))
      (node (ref U1) (pin 2)))
    (net (code 12) (name /AREF)
      (node (ref C3) (pin 1))
      (node (ref U1) (pin 21)))
    (net (code 13) (name /SDA)
      (node (ref R1) (pin 2))
      (node (ref U1) (pin 27))
      (node (ref J1) (pin 4)))
    (net (code 14) (name /SCL)
      (node (ref R2) (pin 2))
      (node (ref J1) (pin 3))
      (node (ref U1) (pin 28)))
    (net (code 16) (name GND)
      (node (ref J1) (pin 6))
      (node (ref J1) (pin 7))
      (node (ref U1) (pin 22))
      (node (ref J1) (pin 5))
      (node (ref Q1) (pin 3))
      (node (ref J1) (pin 2))
      (node (ref J2) (pin 3))
      (node (ref C3) (pin 2))
      (node (ref C1) (pin 2))
      (node (ref U1) (pin 8))
      (node (ref C2) (pin 2))
      (node (ref C5) (pin 2))
      (node (ref CON1) (pin 6))
      (node (ref C4) (pin 2)))
    (net (code 17) (name /PWM_OUT)
      (node (ref U1) (pin 15))
      (node (ref R3) (pin 2)))
    (net (code 18) (name "Net-(U1-Pad26)")
      (node (ref U1) (pin 26)))
    (net (code 19) (name "Net-(U1-Pad25)")
      (node (ref U1) (pin 25)))
    (net (code 20) (name "Net-(U1-Pad24)")
      (node (ref U1) (pin 24)))
    (net (code 21) (name "Net-(U1-Pad10)")
      (node (ref U1) (pin 10)))
    (net (code 22) (name "Net-(U1-Pad9)")
      (node (ref U1) (pin 9)))
    (net (code 23) (name "Net-(U1-Pad13)")
      (node (ref U1) (pin 13)))
    (net (code 24) (name "Net-(U1-Pad12)")
      (node (ref U1) (pin 12)))
    (net (code 25) (name "Net-(U1-Pad11)")
      (node (ref U1) (pin 11)))
    (net (code 26) (name "Net-(U1-Pad5)")
      (node (ref U1) (pin 5)))
    (net (code 27) (name "Net-(U1-Pad14)")
      (node (ref U1) (pin 14)))
    (net (code 28) (name "Net-(U1-Pad16)")
      (node (ref U1) (pin 16)))
    (net (code 29) (name "Net-(U1-Pad6)")
      (node (ref U1) (pin 6)))
    (net (code 30) (name /PWM_FILTER_IN)
      (node (ref R4) (pin 2))
      (node (ref Q1) (pin 2))
      (node (ref R6) (pin 2)))
    (net (code 31) (name +5V)
      (node (ref R6) (pin 1))
      (node (ref CON1) (pin 2))
      (node (ref U1) (pin 7))
      (node (ref C2) (pin 1))
      (node (ref U1) (pin 20))
      (node (ref C1) (pin 1))
      (node (ref J1) (pin 1)))))